{
  "Afl Upload Linux ASan": {
    "gn_args": {
      "archive_seed_corpus": false,
      "dcheck_always_on": false,
      "enable_nacl": false,
      "ffmpeg_branding": "ChromeOS",
      "is_asan": true,
      "is_component_build": true,
      "is_debug": false,
      "optimize_for_fuzzing": true,
      "pdf_enable_xfa": true,
      "proprietary_codecs": true,
      "use_afl": true,
      "use_goma": true
    }
  },
  "CFI Linux CF (reclient shadow)": {
    "gn_args": {
      "dcheck_always_on": false,
      "is_cfi": true,
      "is_component_build": false,
      "is_debug": false,
      "use_cfi_cast": true,
      "use_cfi_diag": true,
      "use_cfi_icall": true,
      "use_cfi_recover": true,
      "use_rbe": true,
      "use_remoteexec": true,
      "use_thin_lto": true
    }
  },
  "Comparison Linux": {
    "goma": {
      "dcheck_always_on": false,
      "ffmpeg_branding": "Chrome",
      "is_component_build": false,
      "is_debug": false,
      "proprietary_codecs": true,
      "use_goma": true
    },
    "reclient": {
      "dcheck_always_on": false,
      "ffmpeg_branding": "Chrome",
      "is_component_build": false,
      "is_debug": false,
      "proprietary_codecs": true,
      "use_rbe": true,
      "use_remoteexec": true
    }
  },
  "Libfuzzer Upload Chrome OS ASan": {
    "gn_args": {
      "archive_seed_corpus": false,
      "dcheck_always_on": false,
      "enable_nacl": false,
      "ffmpeg_branding": "ChromeOS",
      "is_asan": true,
      "is_component_build": true,
      "is_debug": false,
      "optimize_for_fuzzing": true,
      "pdf_enable_xfa": true,
      "proprietary_codecs": true,
      "target_os": "chromeos",
      "use_goma": true,
      "use_libfuzzer": true
    }
  },
  "Libfuzzer Upload Linux ASan": {
    "gn_args": {
      "dcheck_always_on": false,
      "enable_mojom_fuzzer": true,
      "enable_nacl": false,
      "ffmpeg_branding": "ChromeOS",
      "is_asan": true,
      "is_component_build": true,
      "is_debug": false,
      "optimize_for_fuzzing": true,
      "pdf_enable_xfa": true,
      "proprietary_codecs": true,
      "use_goma": true,
      "use_libfuzzer": true
    }
  },
  "Libfuzzer Upload Linux ASan (reclient)": {
    "gn_args": {
      "dcheck_always_on": false,
      "enable_mojom_fuzzer": true,
      "enable_nacl": false,
      "ffmpeg_branding": "ChromeOS",
      "is_asan": true,
      "is_component_build": true,
      "is_debug": false,
      "optimize_for_fuzzing": true,
      "pdf_enable_xfa": true,
      "proprietary_codecs": true,
      "use_libfuzzer": true,
      "use_rbe": true,
      "use_remoteexec": true
    }
  },
  "Libfuzzer Upload Linux ASan Debug": {
    "gn_args": {
      "archive_seed_corpus": false,
      "enable_nacl": false,
      "ffmpeg_branding": "ChromeOS",
      "is_asan": true,
      "is_component_build": true,
      "is_debug": true,
      "optimize_for_fuzzing": true,
      "pdf_enable_xfa": true,
      "proprietary_codecs": true,
      "symbol_level": 1,
      "use_goma": true,
      "use_libfuzzer": true
    }
  },
  "Libfuzzer Upload Linux MSan": {
    "gn_args": {
      "archive_seed_corpus": false,
      "dcheck_always_on": false,
      "enable_nacl": false,
      "ffmpeg_branding": "ChromeOS",
      "is_component_build": true,
      "is_debug": false,
      "is_msan": true,
      "msan_track_origins": 2,
      "optimize_for_fuzzing": true,
      "pdf_enable_xfa": true,
      "proprietary_codecs": true,
      "use_goma": true,
      "use_libfuzzer": true
    }
  },
  "Libfuzzer Upload Linux UBSan": {
    "gn_args": {
      "archive_seed_corpus": false,
      "dcheck_always_on": false,
      "enable_nacl": false,
      "ffmpeg_branding": "ChromeOS",
      "is_component_build": false,
      "is_debug": false,
      "is_ubsan_security": true,
      "optimize_for_fuzzing": true,
      "pdf_enable_xfa": true,
      "proprietary_codecs": true,
      "use_goma": true,
      "use_libfuzzer": true
    }
  },
  "Libfuzzer Upload Mac ASan": {
    "gn_args": {
      "dcheck_always_on": false,
      "enable_nacl": false,
      "ffmpeg_branding": "Chrome",
      "is_asan": true,
      "is_component_build": true,
      "is_debug": false,
      "optimize_for_fuzzing": true,
      "pdf_enable_xfa": true,
      "proprietary_codecs": true,
      "use_goma": true,
      "use_libfuzzer": true
    }
  },
  "Libfuzzer Upload Windows ASan": {
    "gn_args": {
      "dcheck_always_on": false,
      "enable_mojom_fuzzer": true,
      "enable_nacl": false,
      "ffmpeg_branding": "Chrome",
      "is_asan": true,
      "is_component_build": false,
      "is_debug": false,
      "pdf_enable_xfa": true,
      "proprietary_codecs": true,
      "symbol_level": 1,
      "use_goma": true,
      "use_libfuzzer": true
    }
  },
  "Linux ASan LSan Builder (reclient shadow)": {
    "gn_args": {
      "blink_enable_generated_code_formatting": false,
      "dcheck_always_on": true,
      "is_asan": true,
      "is_component_build": false,
      "is_debug": false,
      "is_lsan": true,
      "symbol_level": 1,
      "use_rbe": true,
      "use_remoteexec": true
    }
  },
  "Linux Builder (dbg) (reclient shadow)": {
    "gn_args": {
      "ffmpeg_branding": "Chrome",
      "is_component_build": true,
      "is_debug": true,
      "proprietary_codecs": true,
      "symbol_level": 1,
      "use_rbe": true,
      "use_remoteexec": true
    }
  },
  "Linux Builder (dbg)(32) (reclient shadow)": {
    "gn_args": {
      "ffmpeg_branding": "Chrome",
      "is_component_build": true,
      "is_debug": true,
      "proprietary_codecs": true,
      "symbol_level": 1,
      "target_cpu": "x86",
      "use_rbe": true,
      "use_remoteexec": true
    }
  },
  "Linux Builder (j-500) (reclient)": {
    "gn_args": {
      "dcheck_always_on": false,
      "ffmpeg_branding": "Chrome",
      "is_component_build": false,
      "is_debug": false,
      "proprietary_codecs": true,
      "use_rbe": true,
      "use_remoteexec": true
    }
  },
  "Linux CFI (reclient shadow)": {
    "gn_args": {
      "dcheck_always_on": true,
      "is_cfi": true,
      "is_component_build": false,
      "is_debug": false,
      "use_cfi_cast": true,
      "use_cfi_diag": true,
      "use_cfi_icall": true,
      "use_rbe": true,
      "use_remoteexec": true,
      "use_thin_lto": true
    }
  },
  "Linux MSan Builder (reclient shadow)": {
    "gn_args": {
      "dcheck_always_on": false,
      "is_component_build": false,
      "is_debug": false,
      "is_msan": true,
      "msan_track_origins": 2,
      "use_rbe": true,
      "use_remoteexec": true
    }
  },
  "Linux TSan Builder (reclient)": {
    "gn_args": {
      "dcheck_always_on": false,
      "enable_nacl": false,
      "is_component_build": false,
      "is_debug": false,
      "is_tsan": true,
      "use_rbe": true,
      "use_remoteexec": true
    }
  },
  "Linux Viz": {
    "gn_args": {
      "blink_enable_generated_code_formatting": false,
      "dcheck_always_on": true,
      "is_component_build": false,
      "is_debug": false,
      "symbol_level": 1,
      "use_goma": true
    }
  },
  "Mac Builder (reclient compare)": {
    "gn_args": {
      "dcheck_always_on": false,
      "ffmpeg_branding": "Chrome",
      "is_component_build": false,
      "is_debug": false,
      "proprietary_codecs": true,
      "symbol_level": 1,
      "use_rbe": true,
      "use_remoteexec": true
    }
  },
  "Mac Builder (reclient)": {
    "gn_args": {
      "dcheck_always_on": false,
      "ffmpeg_branding": "Chrome",
      "is_component_build": false,
      "is_debug": false,
      "proprietary_codecs": true,
      "symbol_level": 1,
      "use_rbe": true,
      "use_remoteexec": true
    }
  },
  "Mac Builder Next": {
    "gn_args": {
      "dcheck_always_on": false,
      "ffmpeg_branding": "Chrome",
      "is_component_build": false,
      "is_debug": false,
      "proprietary_codecs": true,
      "symbol_level": 1,
      "use_goma": true
    }
  },
  "Mac deterministic": {
    "gn_args": {
      "dcheck_always_on": false,
      "enable_stripping": true,
      "is_component_build": false,
      "is_debug": false,
      "symbol_level": 1,
      "use_goma": true
    }
  },
  "Mac deterministic (dbg)": {
    "gn_args": {
      "is_component_build": true,
      "is_debug": true,
      "symbol_level": 1,
      "use_goma": true
    }
  },
  "Mojo Linux (reclient shadow)": {
    "gn_args": {
      "blink_enable_generated_code_formatting": false,
      "dcheck_always_on": true,
      "is_component_build": false,
      "is_debug": false,
      "symbol_level": 1,
      "use_rbe": true,
      "use_remoteexec": true
    }
  },
  "Site Isolation Android": {
    "gn_args": {
      "dcheck_always_on": false,
      "ffmpeg_branding": "Chrome",
      "is_component_build": false,
      "is_debug": false,
      "proprietary_codecs": true,
      "strip_debug_info": true,
      "symbol_level": 1,
      "target_cpu": "arm64",
      "target_os": "android",
      "use_goma": true
    }
  },
  "VR Linux": {
    "gn_args": {
      "dcheck_always_on": false,
      "enable_vr": true,
      "is_component_build": false,
      "is_debug": false,
      "use_ozone": true,
      "use_rbe": true,
      "use_remoteexec": true
    }
  },
  "VR Linux (reclient)": {
    "gn_args": {
      "dcheck_always_on": false,
      "enable_vr": true,
      "is_component_build": false,
      "is_debug": false,
      "use_ozone": true,
      "use_rbe": true,
      "use_remoteexec": true
    }
  },
  "WebKit Linux ASAN (reclient shadow)": {
    "gn_args": {
      "dcheck_always_on": false,
      "ffmpeg_branding": "Chrome",
      "is_asan": true,
      "is_component_build": false,
      "is_debug": false,
      "is_lsan": true,
      "proprietary_codecs": true,
      "use_rbe": true,
      "use_remoteexec": true
    }
  },
  "WebKit Linux Leak (reclient shadow)": {
    "gn_args": {
      "dcheck_always_on": false,
      "ffmpeg_branding": "Chrome",
      "is_component_build": false,
      "is_debug": false,
      "proprietary_codecs": true,
      "use_rbe": true,
      "use_remoteexec": true
    }
  },
  "WebKit Linux MSAN (reclient shadow)": {
    "gn_args": {
      "dcheck_always_on": false,
      "ffmpeg_branding": "Chrome",
      "is_component_build": false,
      "is_debug": false,
      "is_msan": true,
      "msan_track_origins": 2,
      "proprietary_codecs": true,
      "use_rbe": true,
      "use_remoteexec": true
    }
  },
  "Win 10 Fast Ring": {
    "gn_args": {
      "blink_enable_generated_code_formatting": false,
      "dcheck_always_on": true,
      "is_component_build": false,
      "is_debug": false,
      "symbol_level": 1,
      "use_goma": true
    }
  },
  "Win x64 Builder (reclient)": {
    "gn_args": {
      "dcheck_always_on": false,
      "ffmpeg_branding": "Chrome",
      "is_component_build": false,
      "is_debug": false,
      "proprietary_codecs": true,
      "symbol_level": 1,
      "use_rbe": true,
      "use_remoteexec": true
    }
  },
  "Win x64 Builder (reclient)(cross)": {
    "gn_args": {
      "dcheck_always_on": false,
      "ffmpeg_branding": "Chrome",
      "is_component_build": false,
      "is_debug": false,
      "proprietary_codecs": true,
      "rbe_cfg_dir": "../../buildtools/reclient_cfgs/win-cross-experiments",
      "symbol_level": 1,
      "use_rbe": true,
      "use_remoteexec": true
    }
  },
  "android-backuprefptr-arm-fyi-rel": {
    "gn_args": {
      "blink_enable_generated_code_formatting": false,
      "dcheck_always_on": true,
      "enable_backup_ref_ptr_slow_checks": true,
      "ffmpeg_branding": "Chrome",
      "is_component_build": false,
      "is_debug": false,
      "never_remove_from_brp_pool_blocklist": true,
      "proprietary_codecs": true,
      "symbol_level": 1,
      "target_cpu": "arm",
      "target_os": "android",
      "use_allocator": "partition",
      "use_backup_ref_ptr": true,
      "use_goma": true
    }
  },
  "android-backuprefptr-arm64-fyi-rel": {
    "gn_args": {
      "blink_enable_generated_code_formatting": false,
      "dcheck_always_on": true,
      "enable_backup_ref_ptr_slow_checks": true,
      "ffmpeg_branding": "Chrome",
      "is_component_build": false,
      "is_debug": false,
      "never_remove_from_brp_pool_blocklist": true,
      "proprietary_codecs": true,
      "symbol_level": 1,
      "target_cpu": "arm64",
      "target_os": "android",
      "use_allocator": "partition",
      "use_backup_ref_ptr": true,
      "use_goma": true
    }
  },
  "android-code-coverage": {
    "gn_args": {
      "dcheck_always_on": false,
      "disable_android_lint": true,
      "enable_resource_allowlist_generation": true,
      "ffmpeg_branding": "Chrome",
      "is_component_build": false,
      "is_debug": false,
      "is_java_debug": true,
      "proprietary_codecs": true,
      "symbol_level": 1,
      "system_webview_package_name": "com.google.android.webview",
      "target_cpu": "arm64",
      "target_os": "android",
      "use_errorprone_java_compiler": false,
      "use_goma": true,
      "use_jacoco_coverage": true,
      "use_static_angle": true
    }
  },
  "android-code-coverage-native": {
    "gn_args": {
      "dcheck_always_on": false,
      "disable_android_lint": true,
      "enable_resource_allowlist_generation": true,
      "ffmpeg_branding": "Chrome",
      "is_component_build": false,
      "is_debug": false,
      "is_java_debug": true,
      "proprietary_codecs": true,
      "system_webview_package_name": "com.google.android.webview",
      "target_cpu": "arm64",
      "target_os": "android",
      "use_clang_coverage": true,
      "use_errorprone_java_compiler": false,
      "use_goma": true,
      "use_static_angle": true
    }
  },
  "chromeos-amd64-generic-rel (goma cache silo)": {
    "args_file": "//build/args/chromeos/amd64-generic.gni",
    "gn_args": {
      "dcheck_always_on": false,
      "is_chromeos_device": true,
      "ozone_platform_headless": true,
      "use_goma": true,
      "use_real_dbus_clients": false
    }
  },
  "chromeos-amd64-generic-rel (reclient compare)": {
    "args_file": "//build/args/chromeos/amd64-generic-vm.gni",
    "gn_args": {
      "dcheck_always_on": false,
      "is_chromeos_device": true,
      "ozone_platform_headless": true,
      "use_rbe": true,
      "use_real_dbus_clients": false,
      "use_remoteexec": true
    }
  },
  "chromeos-amd64-generic-rel (reclient)": {
    "args_file": "//build/args/chromeos/amd64-generic-vm.gni",
    "gn_args": {
      "dcheck_always_on": false,
      "is_chromeos_device": true,
      "ozone_platform_headless": true,
      "use_rbe": true,
      "use_real_dbus_clients": false,
      "use_remoteexec": true
    }
  },
  "fuchsia-code-coverage": {
    "gn_args": {
      "dcheck_always_on": false,
      "fuchsia_code_coverage": true,
      "is_clang": true,
      "is_component_build": false,
      "is_debug": false,
      "symbol_level": 0,
      "target_os": "fuchsia",
      "use_clang_coverage": true,
      "use_goma": true
    }
  },
  "fuchsia-fyi-arm64-dbg": {
    "gn_args": {
      "is_component_build": true,
      "is_debug": true,
      "symbol_level": 1,
      "target_cpu": "arm64",
      "target_os": "fuchsia",
      "test_host_cpu": "arm64",
      "use_goma": true
    }
  },
  "fuchsia-fyi-arm64-femu": {
    "gn_args": {
      "dcheck_always_on": false,
      "is_component_build": false,
      "is_debug": false,
      "target_cpu": "arm64",
      "target_os": "fuchsia",
      "test_host_cpu": "arm64",
      "use_goma": true
    }
  },
  "fuchsia-fyi-arm64-rel": {
    "gn_args": {
      "dcheck_always_on": false,
      "is_component_build": false,
      "is_debug": false,
      "target_cpu": "arm64",
      "target_os": "fuchsia",
      "test_host_cpu": "arm64",
      "use_goma": true
    }
  },
  "fuchsia-fyi-x64-dbg": {
    "gn_args": {
      "is_component_build": true,
      "is_debug": true,
      "symbol_level": 1,
      "target_os": "fuchsia",
      "use_goma": true
    }
  },
  "fuchsia-fyi-x64-rel": {
    "gn_args": {
      "dcheck_always_on": false,
      "is_component_build": false,
      "is_debug": false,
      "target_os": "fuchsia",
      "use_goma": true
    }
  },
  "ios-asan": {
    "gn_args": {
      "dcheck_always_on": false,
      "enable_run_ios_unittests_with_xctest": true,
      "ios_set_attributes_for_xcode_project_generation": false,
      "is_asan": true,
      "is_component_build": false,
      "is_debug": false,
      "is_p2p_enabled": false,
      "target_cpu": "x64",
      "target_environment": "simulator",
      "target_os": "ios",
      "use_goma": true
    }
  },
  "ios-catalyst": {
    "gn_args": {
      "ios_set_attributes_for_xcode_project_generation": false,
      "is_component_build": false,
      "is_debug": true,
      "is_p2p_enabled": false,
      "symbol_level": 1,
      "target_cpu": "x64",
      "target_environment": "catalyst",
      "target_os": "ios",
      "use_goma": true,
      "use_libfuzzer": true,
      "use_lld": false
    }
  },
  "ios-reclient": {
    "gn_args": {
      "enable_run_ios_unittests_with_xctest": true,
      "ios_set_attributes_for_xcode_project_generation": false,
      "is_component_build": false,
      "is_debug": true,
      "symbol_level": 1,
      "target_cpu": "x64",
      "target_environment": "simulator",
      "target_os": "ios",
      "use_rbe": true,
      "use_remoteexec": true
    }
  },
  "ios-simulator-code-coverage": {
    "gn_args": {
      "enable_run_ios_unittests_with_xctest": true,
      "ios_set_attributes_for_xcode_project_generation": false,
      "is_component_build": false,
      "is_debug": true,
      "is_p2p_enabled": false,
      "symbol_level": 1,
      "target_cpu": "x64",
      "target_os": "ios",
      "use_clang_coverage": true,
      "use_goma": true
    }
  },
  "ios-simulator-cr-recipe": {
    "gn_args": {
      "enable_run_ios_unittests_with_xctest": true,
      "ios_set_attributes_for_xcode_project_generation": false,
      "is_component_build": false,
      "is_debug": true,
      "is_p2p_enabled": false,
      "symbol_level": 1,
      "target_cpu": "x64",
      "target_environment": "simulator",
      "target_os": "ios",
      "use_goma": true
    }
  },
  "ios-simulator-cronet": {
    "gn_args": {
      "additional_target_cpus": [
        "x86"
      ],
      "disable_brotli_filter": false,
      "disable_file_support": true,
      "disable_ftp_support": true,
      "enable_remoting": false,
      "enable_run_ios_unittests_with_xctest": true,
      "enable_websockets": false,
      "include_transport_security_state_preload_list": false,
      "ios_deployment_target": "10.0",
      "ios_set_attributes_for_xcode_project_generation": false,
      "ios_stack_profiler_enabled": false,
      "is_component_build": false,
      "is_cronet_build": true,
      "is_debug": true,
      "symbol_level": 1,
      "target_cpu": "x64",
      "target_environment": "simulator",
      "target_os": "ios",
      "use_allocator_shim": false,
      "use_crash_key_stubs": true,
      "use_goma": true,
      "use_platform_icu_alternatives": true
    }
  },
  "ios-simulator-multi-window": {
    "gn_args": {
      "enable_run_ios_unittests_with_xctest": true,
      "ios_set_attributes_for_xcode_project_generation": false,
      "is_component_build": false,
      "is_debug": true,
      "is_p2p_enabled": false,
      "symbol_level": 1,
      "target_cpu": "x64",
      "target_environment": "simulator",
      "target_os": "ios",
      "use_goma": true
    }
  },
  "ios-webkit-tot": {
    "gn_args": {
      "enable_run_ios_unittests_with_xctest": true,
      "ios_set_attributes_for_xcode_project_generation": false,
      "is_component_build": false,
      "is_debug": true,
      "is_p2p_enabled": false,
      "symbol_level": 1,
      "target_cpu": "x64",
      "target_environment": "simulator",
      "target_os": "ios",
      "use_goma": true,
      "use_lld": false
    }
  },
  "ios14-beta-simulator": {
    "gn_args": {
      "enable_run_ios_unittests_with_xctest": true,
      "ios_set_attributes_for_xcode_project_generation": false,
      "is_component_build": false,
      "is_debug": true,
      "is_p2p_enabled": false,
      "symbol_level": 1,
      "target_cpu": "x64",
      "target_environment": "simulator",
      "target_os": "ios",
      "use_goma": true
    }
  },
  "ios14-sdk-simulator": {
    "gn_args": {
      "enable_run_ios_unittests_with_xctest": true,
      "ios_set_attributes_for_xcode_project_generation": false,
      "is_component_build": false,
      "is_debug": true,
      "is_p2p_enabled": false,
      "symbol_level": 1,
      "target_cpu": "arm64",
      "target_environment": "simulator",
      "target_os": "ios",
      "use_goma": true
    }
  },
  "ios15-beta-simulator": {
    "gn_args": {
      "enable_run_ios_unittests_with_xctest": true,
      "ios_set_attributes_for_xcode_project_generation": false,
      "is_component_build": false,
      "is_debug": true,
      "is_p2p_enabled": false,
      "symbol_level": 1,
      "target_cpu": "x64",
      "target_environment": "simulator",
      "target_os": "ios",
      "use_goma": true
    }
  },
  "ios15-sdk-device": {
    "gn_args": {
      "dcheck_always_on": false,
      "enable_run_ios_unittests_with_xctest": true,
      "ios_enable_code_signing": false,
      "ios_set_attributes_for_xcode_project_generation": false,
      "is_component_build": false,
      "is_debug": false,
      "is_p2p_enabled": false,
      "target_cpu": "arm64",
      "target_environment": "device",
      "target_os": "ios",
      "use_goma": true
    }
  },
  "ios15-sdk-simulator": {
    "gn_args": {
      "enable_run_ios_unittests_with_xctest": true,
      "ios_set_attributes_for_xcode_project_generation": false,
      "is_component_build": false,
      "is_debug": true,
      "is_p2p_enabled": false,
      "symbol_level": 1,
      "target_cpu": "x64",
      "target_environment": "simulator",
      "target_os": "ios",
      "use_goma": true
    }
  },
  "lacros-amd64-generic-rel (goma cache silo)": {
    "args_file": "//build/args/chromeos/amd64-generic-crostoolchain.gni",
    "gn_args": {
      "chromeos_is_browser_only": true,
      "cros_host_sysroot": "//build/linux/debian_sid_amd64-sysroot",
      "cros_v8_snapshot_sysroot": "//build/linux/debian_sid_amd64-sysroot",
      "dcheck_always_on": false,
      "is_chromeos_device": true,
      "is_debug": false,
      "ozone_platform_headless": true,
      "target_os": "chromeos",
      "use_goma": true
    }
  },
  "lacros-amd64-generic-rel (reclient)": {
    "args_file": "//build/args/chromeos/amd64-generic-vm.gni",
    "gn_args": {
      "chromeos_is_browser_only": true,
      "cros_host_sysroot": "//build/linux/debian_sid_amd64-sysroot",
      "cros_v8_snapshot_sysroot": "//build/linux/debian_sid_amd64-sysroot",
      "dcheck_always_on": false,
      "is_chromeos_device": true,
      "ozone_platform_headless": true,
      "target_os": "chromeos",
      "use_rbe": true,
      "use_remoteexec": true
    }
  },
  "lacros-amd64-generic-rel-fyi": {
    "args_file": "//build/args/chromeos/amd64-generic-crostoolchain.gni",
    "gn_args": {
      "chromeos_is_browser_only": true,
      "cros_host_sysroot": "//build/linux/debian_sid_amd64-sysroot",
      "cros_v8_snapshot_sysroot": "//build/linux/debian_sid_amd64-sysroot",
      "dcheck_always_on": false,
      "is_chromeos_device": true,
      "is_debug": false,
      "ozone_platform_headless": true,
      "target_os": "chromeos",
      "use_goma": true
    }
  },
  "linux-annotator-rel": {
    "gn_args": {
      "dcheck_always_on": false,
      "is_component_build": false,
      "is_debug": false,
      "use_goma": true
    }
  },
  "linux-ash-chromium-builder-fyi-rel": {
    "gn_args": {
      "dcheck_always_on": false,
      "ffmpeg_branding": "ChromeOS",
      "is_component_build": false,
      "is_debug": false,
      "proprietary_codecs": true,
      "target_os": "chromeos",
      "use_goma": true
    }
  },
  "linux-backuprefptr-x64-fyi-rel": {
    "gn_args": {
      "blink_enable_generated_code_formatting": false,
      "dcheck_always_on": true,
      "enable_backup_ref_ptr_slow_checks": true,
      "is_component_build": false,
      "is_debug": false,
      "never_remove_from_brp_pool_blocklist": true,
      "symbol_level": 1,
      "target_cpu": "x64",
      "use_allocator": "partition",
      "use_backup_ref_ptr": true,
      "use_goma": true
    }
  },
  "linux-blink-animation-use-time-delta": {
    "gn_args": {
      "blink_animation_use_time_delta": true,
      "is_component_build": true,
      "is_debug": true,
      "symbol_level": 1,
      "use_goma": true
    }
  },
  "linux-blink-heap-concurrent-marking-tsan-rel": {
    "gn_args": {
      "blink_enable_generated_code_formatting": false,
      "dcheck_always_on": true,
      "is_component_build": false,
      "is_debug": false,
      "is_tsan": true,
      "symbol_level": 1,
      "use_goma": true
    }
  },
  "linux-blink-heap-verification": {
    "gn_args": {
      "dcheck_always_on": true,
      "enable_blink_heap_verification": true,
      "ffmpeg_branding": "Chrome",
      "is_component_build": false,
      "is_debug": false,
      "proprietary_codecs": true,
      "use_goma": true
    }
  },
  "linux-blink-v8-oilpan": {
    "gn_args": {
      "cppgc_enable_check_assignments_in_prefinalizers": true,
      "cppgc_enable_verify_live_bytes": true,
      "dcheck_always_on": true,
      "enable_blink_heap_use_v8_oilpan": true,
      "ffmpeg_branding": "Chrome",
      "is_component_build": false,
      "is_debug": false,
      "proprietary_codecs": true,
      "use_goma": true
    }
  },
  "linux-chromeos-code-coverage": {
    "gn_args": {
      "dcheck_always_on": false,
      "ffmpeg_branding": "ChromeOS",
      "is_component_build": false,
      "is_debug": false,
      "proprietary_codecs": true,
      "target_os": "chromeos",
      "use_clang_coverage": true,
      "use_goma": true
    }
  },
  "linux-chromeos-js-code-coverage": {
    "gn_args": {
      "dcheck_always_on": false,
      "ffmpeg_branding": "ChromeOS",
      "is_component_build": false,
      "is_debug": false,
      "proprietary_codecs": true,
      "target_os": "chromeos",
      "use_goma": true,
      "use_javascript_coverage": true
    }
  },
  "linux-code-coverage": {
    "gn_args": {
      "dcheck_always_on": false,
      "is_clang": true,
      "is_component_build": false,
      "is_debug": false,
      "symbol_level": 0,
      "use_clang_coverage": true,
      "use_goma": true
    }
  },
  "linux-example-builder": {
    "gn_args": {
      "dcheck_always_on": false,
      "is_component_build": false,
      "is_debug": false,
      "use_goma": true
    }
  },
  "linux-exp-code-coverage": {
    "gn_args": {
      "dcheck_always_on": false,
      "is_clang": true,
      "is_component_build": false,
      "is_debug": false,
      "symbol_level": 0,
      "use_clang_coverage": true,
      "use_goma": true
    }
  },
  "linux-fieldtrial-rel": {
    "gn_args": {
      "dcheck_always_on": false,
      "is_component_build": false,
      "is_debug": false,
      "symbol_level": 1,
      "use_goma": true
    }
  },
  "linux-headless-shell-rel": {
    "args_file": "//build/args/headless.gn",
    "gn_args": {
      "dcheck_always_on": false,
      "enable_ffmpeg_video_decoders": false,
      "is_component_build": false,
      "is_debug": false,
      "media_use_ffmpeg": false,
      "media_use_libvpx": false,
      "proprietary_codecs": false,
      "use_goma": true
    }
  },
  "linux-lacros-builder-fyi-rel": {
    "gn_args": {
      "also_build_ash_chrome": true,
      "chromeos_is_browser_only": true,
      "dcheck_always_on": false,
      "is_component_build": false,
      "is_debug": false,
      "target_os": "chromeos",
      "use_goma": true
    }
  },
  "linux-lacros-builder-rel (goma cache silo)": {
    "gn_args": {
      "also_build_ash_chrome": true,
      "chromeos_is_browser_only": true,
      "dcheck_always_on": false,
      "is_component_build": false,
      "is_debug": false,
      "target_os": "chromeos",
      "use_goma": true
    }
  },
  "linux-lacros-builder-rel (reclient)": {
    "gn_args": {
      "also_build_ash_chrome": true,
      "chromeos_is_browser_only": true,
      "dcheck_always_on": false,
      "is_component_build": false,
      "is_debug": false,
      "target_os": "chromeos",
      "use_rbe": true,
      "use_remoteexec": true
    }
  },
  "linux-lacros-code-coverage": {
    "gn_args": {
      "also_build_ash_chrome": true,
      "chromeos_is_browser_only": true,
      "dcheck_always_on": false,
      "is_clang": true,
      "is_component_build": false,
      "is_debug": false,
      "symbol_level": 0,
      "target_os": "chromeos",
      "use_clang_coverage": true,
      "use_goma": true
    }
  },
  "linux-lacros-dbg-fyi": {
    "gn_args": {
      "also_build_ash_chrome": true,
      "chromeos_is_browser_only": true,
      "is_component_build": true,
      "is_debug": true,
      "symbol_level": 1,
      "target_os": "chromeos",
      "use_goma": true
    }
  },
  "linux-lacros-dbg-tests-fyi": {
    "gn_args": {
      "also_build_ash_chrome": true,
      "chromeos_is_browser_only": true,
      "is_component_build": true,
      "is_debug": true,
      "symbol_level": 1,
      "target_os": "chromeos",
      "use_goma": true
    }
  },
  "linux-lacros-tester-fyi-rel": {
    "gn_args": {
      "also_build_ash_chrome": true,
      "chromeos_is_browser_only": true,
      "dcheck_always_on": false,
      "is_component_build": false,
      "is_debug": false,
      "target_os": "chromeos",
      "use_goma": true
    }
  },
  "linux-lacros-version-skew-fyi": {
    "gn_args": {
      "chromeos_is_browser_only": true,
      "dcheck_always_on": false,
      "is_component_build": false,
      "is_debug": false,
      "target_os": "chromeos",
      "use_goma": true
    }
  },
  "linux-perfetto-rel": {
    "gn_args": {
      "dcheck_always_on": false,
      "is_component_build": false,
      "is_debug": false,
      "use_goma": true,
      "use_perfetto_client_library": true
    }
  },
  "linux-upload-perfetto": {
    "gn_args": {
      "dcheck_always_on": false,
      "is_component_build": false,
      "is_debug": false,
      "use_goma": true
    }
  },
  "linux-wpt-fyi-rel": {
    "gn_args": {
      "dcheck_always_on": false,
      "is_component_build": false,
      "is_debug": false,
      "symbol_level": 1,
      "use_goma": true
    }
  },
  "linux-wpt-identity-fyi-rel": {
    "gn_args": {
      "dcheck_always_on": false,
      "is_component_build": false,
      "is_debug": false,
      "symbol_level": 1,
      "use_goma": true
    }
  },
  "linux-wpt-input-fyi-rel": {
    "gn_args": {
      "dcheck_always_on": false,
      "is_component_build": false,
      "is_debug": false,
      "symbol_level": 1,
      "use_goma": true
    }
  },
  "mac-arm64-on-arm64-rel": {
    "gn_args": {
      "dcheck_always_on": false,
      "is_component_build": false,
      "is_debug": false,
      "target_cpu": "arm64",
      "use_goma": true
    }
  },
  "mac-arm64-on-arm64-rel-reclient": {
    "gn_args": {
      "dcheck_always_on": false,
      "is_component_build": false,
      "is_debug": false,
      "target_cpu": "arm64",
      "use_rbe": true,
      "use_remoteexec": true
    }
  },
  "mac-code-coverage": {
    "gn_args": {
      "dcheck_always_on": false,
      "is_clang": true,
      "is_component_build": false,
      "is_debug": false,
      "symbol_level": 0,
      "use_clang_coverage": true,
      "use_goma": true
    }
  },
  "mac-hermetic-upgrade-rel": {
    "gn_args": {
      "dcheck_always_on": false,
      "is_component_build": false,
      "is_debug": false,
      "use_goma": true
    }
  },
  "mac-paeverywhere-x64-fyi-dbg": {
    "gn_args": {
      "is_component_build": true,
      "is_debug": true,
      "symbol_level": 1,
      "target_cpu": "x64",
      "use_allocator": "partition",
      "use_goma": true
    }
  },
  "mac-paeverywhere-x64-fyi-rel": {
    "gn_args": {
      "blink_enable_generated_code_formatting": false,
      "dcheck_always_on": true,
      "is_component_build": false,
      "is_debug": false,
      "symbol_level": 1,
      "target_cpu": "x64",
      "use_allocator": "partition",
      "use_goma": true
    }
  },
  "mac-upload-perfetto": {
    "gn_args": {
      "dcheck_always_on": false,
      "is_component_build": false,
      "is_debug": false,
      "use_goma": true
    }
  },
  "win-annotator-rel": {
    "gn_args": {
      "dcheck_always_on": false,
      "is_component_build": false,
      "is_debug": false,
      "use_goma": true
    }
  },
  "win-backuprefptr-x64-fyi-rel": {
    "gn_args": {
      "blink_enable_generated_code_formatting": false,
      "dcheck_always_on": true,
      "enable_backup_ref_ptr_slow_checks": true,
      "is_component_build": false,
      "is_debug": false,
      "never_remove_from_brp_pool_blocklist": true,
      "symbol_level": 1,
      "target_cpu": "x64",
      "use_allocator": "partition",
      "use_backup_ref_ptr": true,
      "use_goma": true
    }
  },
  "win-backuprefptr-x86-fyi-rel": {
    "gn_args": {
      "blink_enable_generated_code_formatting": false,
      "dcheck_always_on": true,
      "enable_backup_ref_ptr_slow_checks": true,
      "is_component_build": false,
      "is_debug": false,
      "never_remove_from_brp_pool_blocklist": true,
      "symbol_level": 1,
      "target_cpu": "x86",
      "use_allocator": "partition",
      "use_backup_ref_ptr": true,
      "use_goma": true
    }
  },
  "win-celab-builder-rel": {
    "gn_args": {
      "dcheck_always_on": false,
      "is_component_build": false,
      "is_debug": false,
      "symbol_level": 1,
      "use_goma": true
    }
  },
  "win-pixel-builder-rel": {
    "gn_args": {
      "dcheck_always_on": false,
      "is_component_build": false,
      "is_debug": false,
      "use_goma": true
    }
  },
  "win-upload-perfetto": {
    "gn_args": {
      "dcheck_always_on": false,
      "is_component_build": false,
      "is_debug": false,
      "use_goma": true
    }
  },
  "win10-code-coverage": {
    "gn_args": {
      "dcheck_always_on": false,
      "is_clang": true,
      "is_component_build": false,
      "is_debug": false,
      "symbol_level": 0,
      "use_clang_coverage": true,
      "use_goma": true
    }
  },
  "win32-archive-rel-goma-rbe-canary": {
    "gn_args": {
      "dcheck_always_on": false,
      "is_component_build": false,
      "is_debug": false,
      "skip_archive_compression": false,
      "symbol_level": 1,
      "target_cpu": "x86",
      "use_goma": true
    }
  },
  "win32-archive-rel-goma-rbe-latest": {
    "gn_args": {
      "dcheck_always_on": false,
      "is_component_build": false,
      "is_debug": false,
      "skip_archive_compression": false,
      "symbol_level": 1,
      "target_cpu": "x86",
      "use_goma": true
    }
  },
  "win32-arm64-rel": {
    "gn_args": {
      "dcheck_always_on": false,
      "enable_nacl": false,
      "is_component_build": false,
      "is_debug": false,
      "symbol_level": 1,
      "target_cpu": "arm64",
      "use_goma": true
    }
  }
}